<?xml version="1.0"?>  
 <robot xmlns:xacro="http://ros.org/wiki/xacro" name="car_gazebo">
<xacro:macro name="car_gazebo">  
    <gazebo reference="base_link">  
        <material>Gazebo/Blue</material>  
    </gazebo>  
    <gazebo reference="wheel_1">  
        <material>Gazebo/FlatBlack</material>  
    </gazebo>  
    <gazebo reference="wheel_2">  
        <material>Gazebo/FlatBlack</material>  
    </gazebo>  
    <gazebo reference="wheel_3"> 
        <material>Gazebo/FlatBlack</material>  
    </gazebo>  
    <gazebo reference="wheel_4">  
        <material>Gazebo/FlatBlack</material>  
    </gazebo>  
</xacro:macro>  
</robot>
