message	severity	node	stamp	topics	location
Oh no! I hit the wall! (Clamping from [x=11,102300, y=11,117943])	4	/turtlesim3/sim	1671448946.25754	/rosout,/turtlesim3/turtle1/color_sensor,/turtlesim3/turtle1/pose	/tmp/binarydeb/ros-noetic-turtlesim-0.10.2/src/turtle.cpp:Turtle::update:169
Oh no! I hit the wall! (Clamping from [x=7,344304, y=11,120875])	4	/turtlesim2/sim	1671448946.24057	/rosout,/turtlesim2/turtle1/color_sensor,/turtlesim2/turtle1/pose	/tmp/binarydeb/ros-noetic-turtlesim-0.10.2/src/turtle.cpp:Turtle::update:169
Oh no! I hit the wall! (Clamping from [x=11,102300, y=11,117943])	4	/turtlesim3/sim	1671448946.23925	/rosout,/turtlesim3/turtle1/color_sensor,/turtlesim3/turtle1/pose	/tmp/binarydeb/ros-noetic-turtlesim-0.10.2/src/turtle.cpp:Turtle::update:169
Oh no! I hit the wall! (Clamping from [x=11,102300, y=11,117943])	4	/turtlesim3/sim	1671448945.4679	/rosout,/turtlesim3/turtle1/color_sensor,/turtlesim3/turtle1/pose	/tmp/binarydeb/ros-noetic-turtlesim-0.10.2/src/turtle.cpp:Turtle::update:169
Oh no! I hit the wall! (Clamping from [x=7,343368, y=11,120875])	4	/turtlesim2/sim	1671448945.46384	/rosout,/turtlesim2/turtle1/color_sensor,/turtlesim2/turtle1/pose	/tmp/binarydeb/ros-noetic-turtlesim-0.10.2/src/turtle.cpp:Turtle::update:169
Oh no! I hit the wall! (Clamping from [x=11,099743, y=11,118992])	4	/turtlesim1/sim	1671448945.45319	/rosout,/turtlesim1/turtle1/color_sensor,/turtlesim1/turtle1/pose	/tmp/binarydeb/ros-noetic-turtlesim-0.10.2/src/turtle.cpp:Turtle::update:169
Oh no! I hit the wall! (Clamping from [x=11,102300, y=11,117943])	4	/turtlesim3/sim	1671448945.4524	/rosout,/turtlesim3/turtle1/color_sensor,/turtlesim3/turtle1/pose	/tmp/binarydeb/ros-noetic-turtlesim-0.10.2/src/turtle.cpp:Turtle::update:169
Oh no! I hit the wall! (Clamping from [x=7,342432, y=11,120875])	4	/turtlesim2/sim	1671448945.45016	/rosout,/turtlesim2/turtle1/color_sensor,/turtlesim2/turtle1/pose	/tmp/binarydeb/ros-noetic-turtlesim-0.10.2/src/turtle.cpp:Turtle::update:169
Oh no! I hit the wall! (Clamping from [x=11,099743, y=11,118992])	4	/turtlesim1/sim	1671448945.43692	/rosout,/turtlesim1/turtle1/color_sensor,/turtlesim1/turtle1/pose	/tmp/binarydeb/ros-noetic-turtlesim-0.10.2/src/turtle.cpp:Turtle::update:169
Oh no! I hit the wall! (Clamping from [x=11,102300, y=11,117943])	4	/turtlesim3/sim	1671448945.43634	/rosout,/turtlesim3/turtle1/color_sensor,/turtlesim3/turtle1/pose	/tmp/binarydeb/ros-noetic-turtlesim-0.10.2/src/turtle.cpp:Turtle::update:169
Oh no! I hit the wall! (Clamping from [x=7,341496, y=11,120875])	4	/turtlesim2/sim	1671448945.43259	/rosout,/turtlesim2/turtle1/color_sensor,/turtlesim2/turtle1/pose	/tmp/binarydeb/ros-noetic-turtlesim-0.10.2/src/turtle.cpp:Turtle::update:169
Oh no! I hit the wall! (Clamping from [x=11,099743, y=11,118992])	4	/turtlesim1/sim	1671448945.42141	/rosout,/turtlesim1/turtle1/color_sensor,/turtlesim1/turtle1/pose	/tmp/binarydeb/ros-noetic-turtlesim-0.10.2/src/turtle.cpp:Turtle::update:169
Oh no! I hit the wall! (Clamping from [x=11,102300, y=11,117943])	4	/turtlesim3/sim	1671448945.4203	/rosout,/turtlesim3/turtle1/color_sensor,/turtlesim3/turtle1/pose	/tmp/binarydeb/ros-noetic-turtlesim-0.10.2/src/turtle.cpp:Turtle::update:169
Oh no! I hit the wall! (Clamping from [x=7,340559, y=11,120875])	4	/turtlesim2/sim	1671448945.41213	/rosout,/turtlesim2/turtle1/color_sensor,/turtlesim2/turtle1/pose	/tmp/binarydeb/ros-noetic-turtlesim-0.10.2/src/turtle.cpp:Turtle::update:169
Oh no! I hit the wall! (Clamping from [x=11,099743, y=11,118992])	4	/turtlesim1/sim	1671448945.40617	/rosout,/turtlesim1/turtle1/color_sensor,/turtlesim1/turtle1/pose	/tmp/binarydeb/ros-noetic-turtlesim-0.10.2/src/turtle.cpp:Turtle::update:169
Oh no! I hit the wall! (Clamping from [x=11,102300, y=11,117943])	4	/turtlesim3/sim	1671448945.40578	/rosout,/turtlesim3/turtle1/color_sensor,/turtlesim3/turtle1/pose	/tmp/binarydeb/ros-noetic-turtlesim-0.10.2/src/turtle.cpp:Turtle::update:169
Oh no! I hit the wall! (Clamping from [x=7,339623, y=11,120875])	4	/turtlesim2/sim	1671448945.39765	/rosout,/turtlesim2/turtle1/color_sensor,/turtlesim2/turtle1/pose	/tmp/binarydeb/ros-noetic-turtlesim-0.10.2/src/turtle.cpp:Turtle::update:169
Oh no! I hit the wall! (Clamping from [x=11,099743, y=11,118992])	4	/turtlesim1/sim	1671448945.38965	/rosout,/turtlesim1/turtle1/color_sensor,/turtlesim1/turtle1/pose	/tmp/binarydeb/ros-noetic-turtlesim-0.10.2/src/turtle.cpp:Turtle::update:169
Oh no! I hit the wall! (Clamping from [x=11,102300, y=11,117943])	4	/turtlesim3/sim	1671448945.38907	/rosout,/turtlesim3/turtle1/color_sensor,/turtlesim3/turtle1/pose	/tmp/binarydeb/ros-noetic-turtlesim-0.10.2/src/turtle.cpp:Turtle::update:169
Oh no! I hit the wall! (Clamping from [x=7,338687, y=11,120875])	4	/turtlesim2/sim	1671448945.38123	/rosout,/turtlesim2/turtle1/color_sensor,/turtlesim2/turtle1/pose	/tmp/binarydeb/ros-noetic-turtlesim-0.10.2/src/turtle.cpp:Turtle::update:169
Oh no! I hit the wall! (Clamping from [x=11,099743, y=11,118992])	4	/turtlesim1/sim	1671448945.37356	/rosout,/turtlesim1/turtle1/color_sensor,/turtlesim1/turtle1/pose	/tmp/binarydeb/ros-noetic-turtlesim-0.10.2/src/turtle.cpp:Turtle::update:169
Oh no! I hit the wall! (Clamping from [x=11,102300, y=11,117943])	4	/turtlesim3/sim	1671448945.3724	/rosout,/turtlesim3/turtle1/color_sensor,/turtlesim3/turtle1/pose	/tmp/binarydeb/ros-noetic-turtlesim-0.10.2/src/turtle.cpp:Turtle::update:169
Oh no! I hit the wall! (Clamping from [x=7,337751, y=11,120875])	4	/turtlesim2/sim	1671448945.36384	/rosout,/turtlesim2/turtle1/color_sensor,/turtlesim2/turtle1/pose	/tmp/binarydeb/ros-noetic-turtlesim-0.10.2/src/turtle.cpp:Turtle::update:169
Oh no! I hit the wall! (Clamping from [x=11,099743, y=11,118992])	4	/turtlesim1/sim	1671448945.35754	/rosout,/turtlesim1/turtle1/color_sensor,/turtlesim1/turtle1/pose	/tmp/binarydeb/ros-noetic-turtlesim-0.10.2/src/turtle.cpp:Turtle::update:169
Oh no! I hit the wall! (Clamping from [x=11,102300, y=11,117943])	4	/turtlesim3/sim	1671448945.35745	/rosout,/turtlesim3/turtle1/color_sensor,/turtlesim3/turtle1/pose	/tmp/binarydeb/ros-noetic-turtlesim-0.10.2/src/turtle.cpp:Turtle::update:169
Oh no! I hit the wall! (Clamping from [x=7,336815, y=11,120875])	4	/turtlesim2/sim	1671448945.35712	/rosout,/turtlesim2/turtle1/color_sensor,/turtlesim2/turtle1/pose	/tmp/binarydeb/ros-noetic-turtlesim-0.10.2/src/turtle.cpp:Turtle::update:169
Oh no! I hit the wall! (Clamping from [x=11,099743, y=11,118992])	4	/turtlesim1/sim	1671448945.34469	/rosout,/turtlesim1/turtle1/color_sensor,/turtlesim1/turtle1/pose	/tmp/binarydeb/ros-noetic-turtlesim-0.10.2/src/turtle.cpp:Turtle::update:169
Oh no! I hit the wall! (Clamping from [x=11,102300, y=11,117943])	4	/turtlesim3/sim	1671448945.34405	/rosout,/turtlesim3/turtle1/color_sensor,/turtlesim3/turtle1/pose	/tmp/binarydeb/ros-noetic-turtlesim-0.10.2/src/turtle.cpp:Turtle::update:169
Oh no! I hit the wall! (Clamping from [x=7,335879, y=11,120875])	4	/turtlesim2/sim	1671448945.33371	/rosout,/turtlesim2/turtle1/color_sensor,/turtlesim2/turtle1/pose	/tmp/binarydeb/ros-noetic-turtlesim-0.10.2/src/turtle.cpp:Turtle::update:169

