digraph G {
node [shape=box];
"base_link" [label="base_link"];
"wheel_1" [label="wheel_1"];
"wheel_2" [label="wheel_2"];
"wheel_3" [label="wheel_3"];
"wheel_4" [label="wheel_4"];
node [shape=ellipse, color=blue, fontcolor=blue];
"base_link" -> "wheel_1_to_base_link" [label="xyz: 0.07 0.052 0 \nrpy: 0 -0.75239 0"]
"wheel_1_to_base_link" -> "wheel_1"
"base_link" -> "wheel_2_to_base_link" [label="xyz: -0.07 0.052 0 \nrpy: 0 -0 0"]
"wheel_2_to_base_link" -> "wheel_2"
"base_link" -> "wheel_3_to_base_link" [label="xyz: 0.07 -0.052 0 \nrpy: 0 -0 -3.14159"]
"wheel_3_to_base_link" -> "wheel_3"
"base_link" -> "wheel_4_to_base_link" [label="xyz: -0.07 -0.052 0 \nrpy: 0 -0 3.14159"]
"wheel_4_to_base_link" -> "wheel_4"
}
